<svg xmlns="http://www.w3.org/2000/svg" width="16" height="16" viewBox="0 0 16 16">
  <g id="icon-goi-cuoc" transform="translate(-3 -1)">
    <circle id="Ellipse_33" data-name="Ellipse 33" cx="8" cy="8" r="8" transform="translate(3 1)" fill="#fb0"/>
    <path id="Path_2014" data-name="Path 2014" d="M20.358,13.464,17.812,7.186l3.952,2.528,2.37-6.149L26.71,9.714l3.675-2.461-1.923,6.21Z" transform="translate(-13.099 0.673)" fill="#0c0c0c"/>
    <circle id="Ellipse_39" data-name="Ellipse 39" cx="1.572" cy="1.572" r="1.572" transform="translate(9.428 3.284)" fill="#0c0c0c"/>
    <circle id="Ellipse_40" data-name="Ellipse 40" cx="1.048" cy="1.048" r="1.048" transform="translate(4.19 7.428)" fill="#0c0c0c"/>
    <circle id="Ellipse_41" data-name="Ellipse 41" cx="1.048" cy="1.048" r="1.048" transform="translate(15.715 7.428)" fill="#0c0c0c"/>
  </g>
</svg>
