<svg xmlns="http://www.w3.org/2000/svg" xmlns:xlink="http://www.w3.org/1999/xlink" width="68" height="68" viewBox="0 0 68 68">
  <defs>
    <filter id="Rectangle_1650" x="27.5" y="10.5" width="13" height="32" filterUnits="userSpaceOnUse">
      <feOffset dy="1" input="SourceAlpha"/>
      <feGaussianBlur stdDeviation="0.5" result="blur"/>
      <feFlood flood-opacity="0.161"/>
      <feComposite operator="in" in2="blur"/>
      <feComposite in="SourceGraphic"/>
    </filter>
    <filter id="Rectangle_1651" x="27.5" y="44.5" width="13" height="15" filterUnits="userSpaceOnUse">
      <feOffset dy="1" input="SourceAlpha"/>
      <feGaussianBlur stdDeviation="0.5" result="blur-2"/>
      <feFlood flood-opacity="0.161"/>
      <feComposite operator="in" in2="blur-2"/>
      <feComposite in="SourceGraphic"/>
    </filter>
    <filter id="Ellipse_252" x="1.5" y="2.5" width="65" height="65" filterUnits="userSpaceOnUse">
      <feOffset dy="1" input="SourceAlpha"/>
      <feGaussianBlur stdDeviation="0.5" result="blur-3"/>
      <feFlood flood-opacity="0.161"/>
      <feComposite operator="in" in2="blur-3"/>
      <feComposite in="SourceGraphic"/>
    </filter>
  </defs>
  <g id="icon-error" transform="translate(-201 -207)">
    <circle id="Ellipse_10" data-name="Ellipse 10" cx="34" cy="34" r="34" transform="translate(201 207)" fill="#fb0"/>
    <g transform="matrix(1, 0, 0, 1, 201, 207)" filter="url(#Rectangle_1650)">
      <rect id="Rectangle_1650-2" data-name="Rectangle 1650" width="10" height="29" rx="5" transform="translate(29 11)" fill="#fff"/>
    </g>
    <g transform="matrix(1, 0, 0, 1, 201, 207)" filter="url(#Rectangle_1651)">
      <rect id="Rectangle_1651-2" data-name="Rectangle 1651" width="10" height="12" rx="5" transform="translate(29 45)" fill="#fff"/>
    </g>
    <g transform="matrix(1, 0, 0, 1, 201, 207)" filter="url(#Ellipse_252)">
      <g id="Ellipse_252-2" data-name="Ellipse 252" transform="translate(3 3)" fill="none" stroke="#fff" stroke-width="2">
        <circle cx="31" cy="31" r="31" stroke="none"/>
        <circle cx="31" cy="31" r="30" fill="none"/>
      </g>
    </g>
  </g>
</svg>
